%YAML 1.1
%TAG !u! tag:unity3d.com,2011:
--- !u!114 &11400000
MonoBehaviour:
  m_ObjectHideFlags: 0
  m_CorrespondingSourceObject: {fileID: 0}
  m_PrefabInstance: {fileID: 0}
  m_PrefabAsset: {fileID: 0}
  m_GameObject: {fileID: 0}
  m_Enabled: 1
  m_EditorHideFlags: 0
  m_Script: {fileID: 11500000, guid: 07d6efe734d1de04a8c5c2b0439aaf58, type: 3}
  m_Name: Helmet1
  m_EditorClassIdentifier: 
  uiDisplay: {fileID: 21300000, guid: 45603c38f879a314bb0baedd8f1f5eba, type: 3}
  type: 1
  description: 
  data:
    name: 
    id: -1
    buffs:
    - attribute: 1
      value: 0
      maxValue: 6
      minValue: 2
    - attribute: 0
      value: 0
      maxValue: 3
      minValue: 1
  Stackable: 0
