%YAML 1.1
%TAG !u! tag:unity3d.com,2011:
--- !u!114 &11400000
MonoBehaviour:
  m_ObjectHideFlags: 0
  m_CorrespondingSourceObject: {fileID: 0}
  m_PrefabInstance: {fileID: 0}
  m_PrefabAsset: {fileID: 0}
  m_GameObject: {fileID: 0}
  m_Enabled: 1
  m_EditorHideFlags: 0
  m_Script: {fileID: 11500000, guid: 07d6efe734d1de04a8c5c2b0439aaf58, type: 3}
  m_Name: Legs2
  m_EditorClassIdentifier: 
  uiDisplay: {fileID: 21300000, guid: 6a3b2d5b27158024faa05cc6339e675d, type: 3}
  type: 5
  description: 
  data:
    name: 
    id: -1
    buffs:
    - attribute: 0
      value: 0
      maxValue: 2
      minValue: 1
    - attribute: 1
      value: 0
      maxValue: 3
      minValue: 2
    - attribute: 2
      value: 0
      maxValue: 5
      minValue: 1
  Stackable: 0
