%YAML 1.1
%TAG !u! tag:unity3d.com,2011:
--- !u!114 &11400000
MonoBehaviour:
  m_ObjectHideFlags: 0
  m_CorrespondingSourceObject: {fileID: 0}
  m_PrefabInstance: {fileID: 0}
  m_PrefabAsset: {fileID: 0}
  m_GameObject: {fileID: 0}
  m_Enabled: 1
  m_EditorHideFlags: 0
  m_Script: {fileID: 11500000, guid: 7535346ecc7ef15409acd82b897e7ce5, type: 3}
  m_Name: ManaPotion
  m_EditorClassIdentifier: 
  uiDisplay: {fileID: 21300000, guid: a20d322c5e65a6746808e67a31dfe555, type: 3}
  type: 0
  description: 
  data:
    name: ManaPotion
    id: 2
    buffs: []
  Stackable: 1
  restoreHealthValue: 0
