%YAML 1.1
%TAG !u! tag:unity3d.com,2011:
--- !u!1045 &1
EditorBuildSettings:
  m_ObjectHideFlags: 0
  serializedVersion: 2
  m_Scenes:
  - enabled: 1
    path: Assets/Game/Scenes/MainMenu.unity
    guid: 12b96ac537bf0b7449c13ad6cd6cc5d7
  - enabled: 1
    path: Assets/Game/Scenes/level0.unity
    guid: b475c139dd123534a9c2b7cda5de4d6f
  m_configObjects: {}
