%YAML 1.1
%TAG !u! tag:unity3d.com,2011:
--- !u!114 &11400000
MonoBehaviour:
  m_ObjectHideFlags: 0
  m_CorrespondingSourceObject: {fileID: 0}
  m_PrefabInstance: {fileID: 0}
  m_PrefabAsset: {fileID: 0}
  m_GameObject: {fileID: 0}
  m_Enabled: 1
  m_EditorHideFlags: 0
  m_Script: {fileID: 11500000, guid: 72ba6f9fe2d5e4a44ba52e3d63d3ce96, type: 3}
  m_Name: XPTranslation_Linear
  m_EditorClassIdentifier: 
  offset: 10
  slope: 300
  levelCap: 10
